<?xml version="1.0" encoding="utf-8"?>
<!-- Generator: Adobe Illustrator 16.0.0, SVG Export Plug-In . SVG Version: 6.00 Build 0)  -->
<!DOCTYPE svg PUBLIC "-//W3C//DTD SVG 1.1//EN" "http://www.w3.org/Graphics/SVG/1.1/DTD/svg11.dtd">
<svg version="1.1" id="Layer_1" xmlns="http://www.w3.org/2000/svg" xmlns:xlink="http://www.w3.org/1999/xlink" x="0px" y="0px"
	 width="96px" height="96px" viewBox="0 0 96 96" enable-background="new 0 0 96 96" xml:space="preserve">
<g id="cog4">
	<path fill="#8A8A8A" d="M87.311,48c0-0.983-0.076-1.947-0.146-2.912c3.839-1.227,6.879-2.397,8.837-3.441l-0.704-3.963
		c-2.196-0.316-5.456-0.385-9.479-0.236c-0.535-1.89-1.203-3.719-2.008-5.48c3.18-2.452,5.629-4.58,7.105-6.225l-2.025-3.484
		c-2.178,0.449-5.265,1.491-8.998,2.998c-1.147-1.582-2.396-3.084-3.767-4.476c2.142-3.381,3.707-6.211,4.528-8.257l-3.105-2.586
		c-1.886,1.157-4.419,3.175-7.398,5.849c-1.613-1.095-3.332-2.041-5.106-2.891c0.849-3.912,1.347-7.108,1.413-9.313l-3.811-1.375
		c-1.377,1.731-3.066,4.499-4.953,8.036c-1.883-0.475-3.805-0.854-5.784-1.047C51.354,5.249,50.723,2.088,50.027,0h-4.055
		c-0.695,2.088-1.327,5.249-1.878,9.196c-1.98,0.194-3.902,0.573-5.785,1.047c-1.886-3.537-3.575-6.305-4.952-8.036l-3.811,1.375
		c0.066,2.205,0.565,5.401,1.413,9.313c-1.775,0.85-3.493,1.796-5.108,2.891c-2.979-2.674-5.513-4.692-7.398-5.849l-3.106,2.586
		c0.821,2.045,2.39,4.875,4.529,8.257c-1.368,1.392-2.617,2.894-3.766,4.476c-3.734-1.507-6.821-2.549-8.997-2.998l-2.028,3.484
		c1.479,1.645,3.928,3.772,7.106,6.225c-0.803,1.762-1.471,3.591-2.006,5.48c-4.026-0.148-7.283-0.08-9.481,0.236L0,41.646
		c1.958,1.044,4.998,2.215,8.837,3.441C8.765,46.053,8.688,47.017,8.688,48c0,0.982,0.076,1.947,0.148,2.912
		C4.998,52.139,1.958,53.309,0,54.354l0.704,3.963c2.198,0.316,5.455,0.387,9.481,0.236c0.535,1.891,1.203,3.719,2.006,5.48
		c-3.179,2.451-5.628,4.58-7.106,6.225l2.028,3.484c2.176-0.448,5.263-1.49,8.997-2.998c1.148,1.582,2.397,3.085,3.766,4.477
		c-2.141,3.381-3.708,6.211-4.529,8.258l3.106,2.584c1.886-1.154,4.419-3.176,7.398-5.849c1.615,1.095,3.333,2.04,5.108,2.892
		c-0.848,3.91-1.347,7.107-1.413,9.313l3.811,1.376c1.377-1.729,3.066-4.499,4.952-8.037c1.883,0.476,3.805,0.854,5.785,1.05
		c0.551,3.945,1.183,7.106,1.878,9.194h4.055c0.695-2.088,1.326-5.249,1.877-9.194c1.979-0.193,3.902-0.574,5.785-1.05
		c1.886,3.538,3.576,6.308,4.953,8.037l3.811-1.376c-0.066-2.204-0.564-5.4-1.413-9.313c1.774-0.852,3.493-1.797,5.108-2.892
		c2.979,2.673,5.513,4.692,7.396,5.849l3.105-2.584c-0.821-2.047-2.391-4.877-4.528-8.258c1.368-1.392,2.616-2.895,3.767-4.477
		c3.733,1.508,6.82,2.55,8.998,2.998l2.025-3.484c-1.479-1.645-3.93-3.771-7.105-6.225c0.805-1.762,1.473-3.592,2.008-5.48
		c4.023,0.148,7.283,0.08,9.479-0.236L96,54.354c-1.958-1.045-4.998-2.215-8.837-3.439C87.234,49.947,87.311,48.982,87.311,48z
		 M51,18.244c0-1.694,1.557-2.959,3.221-2.641c7.428,1.418,13.965,5.33,18.723,10.829c1.104,1.278,0.777,3.255-0.687,4.1
		l-0.649,0.375c-1.096,0.633-2.448,0.339-3.279-0.615c-3.852-4.417-9.1-7.577-15.061-8.763C51.973,21.27,51,20.203,51,18.882V18.244
		z M23.057,26.432c4.758-5.5,11.295-9.41,18.724-10.829C43.443,15.285,45,16.55,45,18.244v0.639c0,1.321-0.973,2.388-2.268,2.646
		c-5.961,1.186-11.21,4.347-15.059,8.764c-0.831,0.954-2.185,1.247-3.28,0.614l-0.651-0.375
		C22.279,29.687,21.952,27.71,23.057,26.432z M21.203,60.008l-0.464,0.268c-1.46,0.844-3.331,0.146-3.89-1.442
		C15.66,55.439,15,51.799,15,48c0-3.8,0.66-7.438,1.85-10.831c0.559-1.591,2.43-2.287,3.89-1.444l0.464,0.268
		c1.122,0.648,1.701,2,1.276,3.225C21.525,41.972,21,44.924,21,48s0.525,6.027,1.479,8.783
		C22.904,58.008,22.325,59.359,21.203,60.008z M45,77.756c0,1.693-1.557,2.959-3.22,2.643c-7.429-1.42-13.966-5.33-18.724-10.83
		c-1.104-1.276-0.777-3.254,0.686-4.1l0.651-0.376c1.096-0.632,2.449-0.339,3.28,0.615c3.849,4.417,9.098,7.578,15.059,8.765
		C44.027,74.73,45,75.797,45,77.117V77.756z M48,65.094c-9.44,0-17.094-7.652-17.094-17.094c0-9.441,7.654-17.094,17.094-17.094
		c9.439,0,17.094,7.654,17.094,17.094C65.094,57.439,57.439,65.094,48,65.094z M72.941,69.568
		c-4.756,5.498-11.293,9.41-18.724,10.828C52.557,80.715,51,79.449,51,77.756v-0.639c0-1.32,0.973-2.387,2.268-2.645
		c5.961-1.188,11.209-4.35,15.061-8.767c0.831-0.954,2.186-1.247,3.279-0.614l0.65,0.375C73.721,66.313,74.048,68.29,72.941,69.568z
		 M79.148,58.831c-0.559,1.591-2.428,2.286-3.89,1.444l-0.464-0.27c-1.122-0.646-1.699-2-1.275-3.225C74.475,54.027,75,51.076,75,48
		s-0.525-6.028-1.48-8.783c-0.424-1.225,0.155-2.576,1.277-3.225l0.465-0.268c1.459-0.843,3.33-0.146,3.889,1.444
		C80.34,40.562,81,44.2,81,48C81,51.799,80.34,55.439,79.148,58.831z"/>
	<g>
		<path fill="#8A8A8A" d="M48,96c-2.761,0-5-2.238-5-5V48.045c0-2.761,2.239-5,5-5c2.762,0,5,2.239,5,5V91
			C53,93.762,50.762,96,48,96z"/>
	</g>
</g>
</svg>
