<?xml version="1.0" encoding="utf-8"?>
<!-- Generator: Adobe Illustrator 16.0.0, SVG Export Plug-In . SVG Version: 6.00 Build 0)  -->
<!DOCTYPE svg PUBLIC "-//W3C//DTD SVG 1.1//EN" "http://www.w3.org/Graphics/SVG/1.1/DTD/svg11.dtd">
<svg version="1.1" id="Layer_1" xmlns="http://www.w3.org/2000/svg" xmlns:xlink="http://www.w3.org/1999/xlink" x="0px" y="0px"
	 width="500px" height="500px" viewBox="0 0 500 500" enable-background="new 0 0 500 500" xml:space="preserve">
<g opacity="0.3" enable-background="new    ">
	<path fill="#F1F1F1" d="M19.262,250.229c0-127.195,103.48-230.676,230.676-230.676c127.194,0,230.676,103.481,230.676,230.676
		c0,61.249-24.002,116.992-63.085,158.336c4.031,4.121,7.529,8.753,10.092,13.934c45.044-46.422,69.817-107.438,69.817-172.27
		c0-66.11-25.745-128.263-72.491-175.009C378.199,28.475,316.047,2.729,249.938,2.729c-66.11,0-128.263,25.745-175.009,72.491
		c-46.746,46.747-72.491,108.9-72.491,175.009c0,64.831,24.773,125.846,69.818,172.269c2.562-5.18,6.06-9.812,10.091-13.933
		C43.264,367.222,19.262,311.479,19.262,250.229z"/>
	<path fill="#F1F1F1" d="M406.175,422.986c-0.446-0.669-0.935-1.285-1.44-1.88c-0.697,0.632-1.407,1.251-2.112,1.875
		L406.175,422.986z"/>
	<path fill="#F1F1F1" d="M93.587,423.229h3.418c-0.665-1-1.335-1.171-1.992-1.769C94.511,422.034,94.029,422.229,93.587,423.229z"/>
	<path fill="#F1F1F1" d="M249.938,480.446c-47.547,0-91.777-14.217-128.53-39.217H93.056c44.134,37,98.991,56.041,156.882,56.041
		c57.891,0,112.748-19.041,156.882-56.041h-28.353C341.714,466.229,297.484,480.446,249.938,480.446z"/>
	<g>
		<path fill="#F1F1F1" d="M427.62,422.501c-2.563-5.184-6.061-9.813-10.092-13.937c-4.104,4.341-8.368,8.527-12.794,12.54
			c0.509,0.595,0.994,1.211,1.44,1.88l-3.556-0.231c-7.619,6.743-15.685,13.477-24.152,18.477h28.353
			c6.269-5,12.315-10.408,18.127-16.22C425.851,424.105,426.731,423.415,427.62,422.501z"/>
	</g>
	<g>
		<path fill="#F1F1F1" d="M97.005,423.229h-3.418c0.442-1,0.923-1.43,1.426-2.002c-4.381-3.979-8.603-8.244-12.667-12.544
			c-4.031,4.121-7.529,8.694-10.091,13.874c0.888,0.916,1.77,1.577,2.674,2.479c5.81,5.814,11.861,11.193,18.126,16.193h28.352
			C112.848,436.229,104.702,429.229,97.005,423.229z"/>
	</g>
</g>
<path opacity="0.3" fill="#F1F1F1" enable-background="new    " d="M250,19.325C122.805,19.325,19.324,122.806,19.324,250
	c0,61.249,24.001,116.992,63.084,158.336c14.581-14.906,36.115-23.138,45.404-26.449c14.689-5.238,35.642-7.42,49.193-10.38
	c7.744-1.706,19.018-5.921,22.776-10.478c3.758-4.555,1.479-46.572,1.479-46.572s-6.946-10.818-10.705-20.498
	c-3.757-9.566-7.856-35.87-7.856-35.87s-7.744-0.114-10.476-13.666c-2.848-14.803-7.516-20.725-6.947-31.771
	c0.569-10.25,5.92-10.819,6.49-10.819c0,0-5.694-15.601-6.377-48.284c-0.796-38.831,28.811-76.978,84.609-76.978
	s85.52,38.261,84.609,77.093c-0.801,32.796-6.376,48.283-6.376,48.283c0.565,0,5.922,0.57,6.487,10.818
	c0.567,11.047-3.982,17.198-6.944,32.001c-2.733,13.55-10.479,13.554-10.479,13.554s-4.098,26.199-7.854,35.767
	c-3.758,9.563-10.707,20.513-10.707,20.513s-2.274,42.051,1.48,46.605c3.76,4.439,15.032,8.827,22.774,10.535
	c13.438,2.962,34.506,4.904,49.191,10.145c9.288,3.313,30.822,11.542,45.403,26.449c39.083-41.346,63.085-97.088,63.085-158.336
	C480.676,122.806,377.194,19.325,250,19.325z"/>
</svg>
