<?xml version="1.0" encoding="utf-8"?>
<!-- Generator: Adobe Illustrator 16.0.0, SVG Export Plug-In . SVG Version: 6.00 Build 0)  -->
<!DOCTYPE svg PUBLIC "-//W3C//DTD SVG 1.1//EN" "http://www.w3.org/Graphics/SVG/1.1/DTD/svg11.dtd">
<svg version="1.1" id="Layer_1" xmlns="http://www.w3.org/2000/svg" xmlns:xlink="http://www.w3.org/1999/xlink" x="0px" y="0px"
	 width="210.137px" height="213.21px" viewBox="0 0 210.137 213.21" enable-background="new 0 0 210.137 213.21"
	 xml:space="preserve">
<g>
	<g>
		<path fill="#F26530" d="M204.673,131.141c1.338-4.97,3.336-13.491,3.766-13.938c0.218-1.705,0.384-3.431,0.494-5.182
			c-0.869,0.366-1.834-5.046-3.881-6.701c1.424-1.32,2.756-2.645,3.934-3.957c-0.073-1.828-0.186-3.652-0.352-5.483
			c-0.07-0.796-0.152-1.588-0.244-2.381c-3.606,3.645-0.832,0.884-6.074,1.008c-2.352-7.839,1.234-4.247,3.402-14.769l-0.057-0.176
			c-3.771-0.613-2.176,0.746-6.232,2.59c-2.752-1.811,4.822-10.08,2.85-11.01c-0.997-0.469-9.693,6.469-12.719,5.811l9.863-14.711
			c-0.41-0.951-0.842-1.906-1.293-2.857c-0.92-0.929-2.058-0.45-3.316,0.831l-9.717,10.723c1.359-4.936,1.691-1.127,0.148-4.521
			l7.74-16.027c-0.563-0.808-1.15-1.597-1.762-2.35l-0.758-0.997c-6.479-2.752-6.68,10.769-15.044,6.817
			c0.938-4.701,1.803-1.621,2.984-5.743c1.171-4.089-1.385-0.82,0.737-5.103c1.227-1.13,2.996-2.459,4.748-3.91
			c-0.854-0.949-1.727-1.882-2.608-2.802l-0.413,0.27c-6.497,4.183-14.321,13.155-22.183,16.807
			c8.52-8.508,18.289-18.22,19.35-20.543l-1.66-1.652l-3.261,4.085c-5.106,4.029,2.558-4.797-3.276-1.772
			c-0.535,2.241-8.666,3.384-1.615-5.412c0.66-0.824-0.559-3.608-0.559-3.608c-4.648-3.67-6.277-1.387-7.216-2
			c-11.306,8.985-7.226,1.173-1.392-4.437c-0.813-0.669-1.631-1.295-2.838-1.349c-1.131-0.049-2.955-2.739-4.215-3.081
			c-13.722-6.395-9.91,10.013-20.061,7.794l3.596-6.338c1.82-2.721,5.157-5.445,2.133-6.122c-2.783-0.619-4.424,1.212-6.211,3.182
			l-3.977,3.265c1.359-4.936,1.691-1.127,0.15-4.521l1.678-3.484l-1.818-0.272c-0.375,0.172-0.771,0.326-1.193,0.462
			c-0.17-0.23-0.32-0.465-0.453-0.697c-3.047-0.423-6.059-0.776-8.98-1.116c-0.082-0.84-0.283-1.596-0.781-2.314
			c-0.527-0.764-1.211-1.25-1.977-1.539c-0.26,0.226-0.525,0.469-0.803,0.726c-3.726,3.465-4.99,3.726-8.535,6.366l-1.635-4.01
			l-0.172,0.088c-1.047,0.02-2.097,0.055-3.142,0.107c-3.483,3.129-6.593,5.842-9.394,8.221c-0.253-0.033-0.545-0.071-0.893-0.107
			c-5.296-0.562,0.21,2.944-5.146-1.021c2.705-2.938,2.664-1.724,3.076-5.256L87.13,6.623c-1.729,0.31-3.445,0.665-5.159,1.07
			c0.154,0.44,0.313,1.039,0.471,1.856c-4.346,1.887-2.31,3.484-7.214,2.362c0.3-2.553,1.044-3.315,2.253-4.588
			c-0.975-0.092-1.963,0.066-2.933,0.641c-1.304,0.771-1.682,1.605-2.135,2.529l-0.084,0.031c-0.329,0.783-0.679,1.595-1.104,2.404
			c-1.197-0.299-1.94-0.627-2.422-0.937c-2.406,1.128-4.828,2.477-7.161,3.736c-1.687,1.855-3.47,3.566-5.515,4.581
			c-1.75,0.864-3.056,0.965-4.108,0.941l-0.625,0.41c-1.767-0.299-2.479,1.079-3.95,2.469l-0.064,0.063
			c-0.08,0.18-0.162,0.366-0.242,0.568c-0.865,5.453,4.388,3.879,0.023,9.529l-5.813-5.368l-2.396,2.522
			c0.78,1.599,2.651,2.103-0.455,6.122c-0.192-0.043-0.354-0.352-0.554-0.235c-1.739,1.024-0.548-1.047-3.179-1.436
			c-2.562,3.38-5.755,9.444-6.54,14.157l-4.793-1.185l0.926,4.844l-5.032,2.139c-0.503,6.436,0,11.731-4.401,15.267L6.78,78.97
			c-0.197,0.499-0.339,1.023-0.402,1.596c-0.097,0.877,0.021,1.768-0.017,2.656c-0.069,1.797-0.478,3.731-0.881,5.475
			c-0.045,0.153,0.047,0.287,0.25,0.401c-0.255,0.388-0.481,0.768-0.685,1.138c-0.125,0.475-0.243,0.95-0.354,1.429
			c6.378,0.863-2.634,5.863,7.598,8.001c0.328,2.711-0.865,4.599-2.512,6.47c-0.613,0.703-6.369,6.497-7.058,7.239
			c2.953,2.297,6.522-4.977,8.136-2.035c-3.03,7.441-13.994,11.18-7.88,19.473c3.271-3.02,6.485-7.038,10.597-8.371
			c0.52,4.078-1.023,4.354-2.519,7.962c5.908,3.718,3.116-1.707,7.964,2.519c-2.882,2.66-4.298,2.822-5.013,6.396
			c2.579,0.683,1.696,0.401,4.762-0.729l4.462-1.102l-1.95,4.318c-1.748,2.601-1.416,0.975-2.791,4.285
			c3.662,2.457,4.132,0.906,5.62,2.559l-5.339,6.575c5.993-2.259,9.26-6.531,14.739-7.177c-0.175,1.508-0.321,2.086-0.571,2.488
			c7.231-6.416,14.631-12.82,21.476-19.563c8.734-8.603,18.677-15.193,27.441-23.97l0.148-0.15l0.158-0.145
			c2.127-1.92,3.392-2.002,5.521-3.117c5.063-3.158,9.572-2.193,13.592,1.911c1.989,2.033,3.974,4.056,5.888,6.156
			c0.267-0.265,0.532-0.523,0.797-0.787c4.085-4.021,8.438-7.401,13.483-10.125c2.902-1.567,6.029-2.765,8.863-4.353
			c0.479-0.264,0.938-0.546,1.381-0.852c0.916-3.061,1.027-5.955,3.719-8.647l0.152-0.15l0.156-0.145
			c2.127-1.918,3.389-2.003,5.518-3.119c5.064-3.154,9.576-2.193,13.598,1.913c2.324,2.376,4.646,4.742,6.855,7.231
			c6.428,7.229,12.457,14.549,19.796,20.849c5.469,0.979,7.646,3.161,11.912,7.495c1.578,1.604,2.892,2.199,4.83,3.32
			c0.984,0.569,1.879,1.217,2.65,2.012c0.295,0.271,0.57,0.561,0.836,0.867c0.359,0.426,0.705,0.873,1.039,1.318
			C203.406,129.362,204.04,130.251,204.673,131.141z"/>
		<path fill="#299855" d="M116.348,207.807l0.121,0.03c1.518-1.084,2.826-1.813,4.963-3.4l0.363,0.893
			c0.768-0.238,1.559-0.588,2.525-1.412c3.402,0.479,5.43,0.467,6.479,0.41l2.447-2.135v3.229l2.063-0.459
			c1.701-0.303,9.252-3.938,9.273-3.979l0.084-0.029c0.332-0.783,0.68-1.596,1.105-2.406c1.193,0.298,1.943,0.623,2.418,0.936
			c2.41-1.127,4.83-2.475,7.162-3.734c1.354-1.49,1.418,0.441,2.451,0.733c0.33-0.022,0.652-0.075,0.969-0.153
			c1.746-0.869,3.388-4.334,4.443-4.313l0,0l0.877-0.578c0.141,0.023,0.274,0.035,0.402,0.039l1.832-0.77
			c0.529-0.471,1.045-1.104,1.717-1.74c1.033-0.977,1.477-1.075,2.191-1.424c2.029-1.769,4.729-4.275,7.809-7.514
			c-0.781-1.601-2.652-2.105,0.454-6.125c0.191,0.045,0.352,0.354,0.553,0.238c1.74-1.023,0.545,1.046,3.176,1.436
			c1.643-2.162,4.504-4.74,6.934-7.131c1.1-1.469,2.16-2.972,3.176-4.517c0.34-0.521,0.713-1.062,1.104-1.608l4.229-6.693
			c0.504-6.438,0.951-9.69,5.352-13.229c-0.357-1.545-0.928-2.087-1.691-1.966c-0.25,0.041-5.928-8.411-6.219-8.246
			c-0.168-0.233-0.473-0.479-1-0.782c-2.868-1.658-4.188-2.263-6.57-4.67c-2.734-2.785-3.68-4.867-9.515-5.441
			c-8.809-7.153-15.051-14.846-22.482-23.209c-2.195-2.469-4.289-4.594-6.588-6.94c-1.336-1.363-1.705-1.729-3.371-0.687
			c-1.461,0.912-3.152,1.151-4.363,2.243c-0.984,0.989-1.826,7.101-2.826,8c-6.332,5.666-13.396,4.927-24.664,16.021
			c-2.305,2.285-4.649,4.563-7.016,6.835c-1.543-1.755-3.105-3.545-4.726-5.366c-2.19-2.468-4.29-4.594-6.587-6.943
			c-1.336-1.36-1.704-1.726-3.372-0.686c-1.462,0.91-3.152,1.15-4.361,2.244c-11.873,11.891-17.635,14.314-27.49,24.021
			c-7.271,7.156-20.682,18.737-28.327,25.723c-1.331,0.294,3.539-3.371,2.732-2.344l-1.368,2.83
			c0.565,0.811-4.776,6.047-4.169,6.801l0.756,0.998c6.479,2.748,1.985-4.715,10.354-0.766c-0.938,4.702,2.892-4.43,1.707-0.311
			c-1.17,4.088,1.386,0.818-0.736,5.1c-1.227,1.133,2.936-1.986,1.182-0.533c0.854,0.947,1.725,1.883,2.608,2.799l0.414-0.267
			c5-3.22,5.521-6.771-0.625,6.701l1.657,1.649l6.72-7.049c5.104-4.024-2.557,4.799,3.275,1.775
			c0.534-2.243,5.271,1.186,1.616,5.411c-0.688,0.796-0.738,8.793-0.738,8.793c4.647,3.672,7.576-3.8,8.513-3.188
			c11.303-8.986,7.228-1.172,1.391,4.438c0.814,0.666,1.632,1.295,2.841,1.353c1.129,0.047,2.952,2.736,4.215,3.078
			c13.72,6.393,9.908-10.013,20.058-7.793l-3.592,6.338c-1.824,2.719-5.162,5.447-2.133,6.123c2.782,0.615,4.423-1.211,6.209-3.184
			l3.979-3.264c-1.36,4.938-1.691,1.125-0.15,4.52l-1.682,3.484l1.819,0.272c0.377-0.172,0.774-0.325,1.192-0.462
			c0.172,0.232,0.323,0.467,0.456,0.697c3.044,0.423,6.061,0.773,8.983,1.115c0.078,0.84,0.283,1.596,0.778,2.313
			c0.41,0.597,0.918,1.022,1.482,1.321l1.176-0.492c0.529-0.475,1.043-1.105,1.717-1.74
			C115.356,208.255,115.809,208.055,116.348,207.807L116.348,207.807z"/>
		<path fill="#FFFFFF" d="M103.051,127.065c-3.858,3.675-7.766,7.325-11.72,10.937c-1.916,0.42-3.272,1.857-4.118,3.582
			l-0.125,0.258c-1.227,1.101-2.451,2.193-3.684,3.281c-0.671,0.596-1.334,1.198-2.014,1.785c-0.108,0.092-0.856,0.77-1.017,0.648
			c-0.149-0.113,0.181-1.012,0.229-1.152c0.332-0.988,0.685-1.969,0.998-2.964l4.086-12.853l7.617-13.363
			C97.105,121.414,100.325,124.619,103.051,127.065L103.051,127.065z"/>
		<path fill="#FFFFFF" d="M112.754,192.917l-8.309-21.801l17.076,3.674l33.113,11.104l-36.551-21.484l-5.744-8.425l8.787-7.104
			l28.182,5.965L127.616,139.6l34.248,2.89l-22.62-32.005l5.111-5.129l2.504-8.237c18.867,20.833,18.768,20.238,18.813,20.289
			c3.563,3.771,4.303,4.766,8.488,8.166l3.146,3.049c3.022,0.299,2.839,1.098,4.991,3.285c2.535,2.565,4.594,3.822,7.504,5.512
			l-2.455,6.888l5.658-2.415l0.09-0.055c0.104,0.146,0.209,0.297,0.316,0.445c-1.869,3.191-2.521,6.691-2.919,10.936l-3.171,5.015
			l-19.843-4.741l15.505,10.7c-0.805,0.774-1.629,1.558-2.439,2.349c-0.439-0.039-0.889-0.041-1.336-0.006l-3.685-0.808
			l-2.852,3.687c-2.363,3.063-3.561,5.887-3.222,8.854c-1.099,1.07-2.22,2.117-3.364,3.135c-1.141,0.602-2.006,1.194-3.098,2.227
			c-0.047,0.043-0.098,0.09-0.145,0.139l-0.375-0.063l-2.068,1.358c-1.604,0.546-2.611,1.589-3.604,2.772
			c-1.961-0.166-3.974,0.438-5.736,1.871c-1.088,0.592-2.178,1.188-3.271,1.765c-0.078-0.021-0.154-0.04-0.234-0.06l-5.615-1.398
			l-2.648,5.059l-0.027,0.012l-0.217,0.449c-1.574,0.764-3.342,1.573-4.758,2.065c-2.822-0.921-6.313-0.591-8.938-0.957
			l-3.268-0.459l-2.52,2.134c-0.008,0.008-0.018,0.016-0.023,0.021c-0.328,0.115-0.637,0.218-0.925,0.314l-3.157-7.734
			L112.754,192.917z"/>
	</g>
</g>
</svg>
