<?xml version="1.0" encoding="utf-8"?>
<!-- Generator: Adobe Illustrator 16.0.0, SVG Export Plug-In . SVG Version: 6.00 Build 0)  -->
<!DOCTYPE svg PUBLIC "-//W3C//DTD SVG 1.1//EN" "http://www.w3.org/Graphics/SVG/1.1/DTD/svg11.dtd">
<svg version="1.1" id="Layer_1" xmlns="http://www.w3.org/2000/svg" xmlns:xlink="http://www.w3.org/1999/xlink" x="0px" y="0px"
	 width="200px" height="200px" viewBox="0 0 200 200" enable-background="new 0 0 200 200" xml:space="preserve">
<path opacity="0.5" fill-rule="evenodd" clip-rule="evenodd" fill="#F1F1F1" d="M100,1C45.324,1,1,45.324,1,100s44.324,99,99,99
	c54.677,0,99-44.324,99-99S154.677,1,100,1z M143.599,114.281c-0.956,0.849-2.13,1.499-3.39,1.876c-0.003,0-0.006,0.001-0.009,0.002
	c0.011,0.022,0.022,0.046,0.035,0.07c2.749,5.278,1.804,11.197-2.408,15.079c-1.522,1.401-3.324,2.303-4.708,2.89
	c2.121,4.8-0.108,11.251-3.674,13.78c-1.302,0.924-2.665,1.247-3.566,1.461c-0.142,0.033-0.282,0.065-0.418,0.103
	c-0.438,0.118-0.858,0.204-1.231,0.272c0.153,0.692,0.247,1.357,0.287,2.014c0.274,4.509-2.4,8.151-6.813,9.277
	c-1.941,0.494-3.96,0.734-6.171,0.734c0,0,0,0-0.001,0c-1.472,0-3.048-0.108-4.818-0.331l-2.9-0.363
	c-4.192-0.523-8.526-1.064-12.801-1.686c-2.762-0.402-5.117-0.951-7.203-1.68c-1.777-0.622-3.531-1.623-5.524-3.15
	c-1.498-1.147-2.956-2.337-4.366-3.487c-1.757-1.433-3.417-2.786-5.139-4.06c-1.471-1.088-2.851-1.668-4.217-1.772l-0.773-0.056
	c-2.206-0.154-4.705-0.329-7.325-1.435c-3.532-1.492-6.013-4.061-7.173-7.43c-0.927-2.697-1.516-5.143-1.801-7.479
	c-0.937-7.693-0.863-15.331,0.22-22.702c0.338-2.3,1.182-4.415,2.044-6.358c1.853-4.179,5.859-5.183,8.011-5.722
	c0.81-0.203,1.534-0.364,2.257-0.524c1.007-0.223,1.958-0.433,2.831-0.692c2.68-0.796,5.035-2.47,7.409-5.266
	c0.761-0.896,1.527-1.786,2.294-2.677c2.345-2.723,4.559-5.296,6.616-8.013c3.753-4.959,7.665-10.275,10.608-15.921
	c1.67-3.204,2.544-6.731,2.666-10.77h-0.144v-5c0-0.596-0.006-1.192-0.013-1.788c-0.015-1.435-0.031-2.919,0.036-4.443
	c0.222-5.065,3.573-7.333,6.796-7.333c1.074,0,2.186,0.23,3.4,0.703c3.416,1.33,5.578,3.818,6.907,5.573
	c5.804,7.667,7.023,16.678,3.624,26.784c-1.33,3.952-2.454,7.922-3.342,11.802c-0.992,4.332,1.029,9.026,5.028,11.682
	c2.701,1.794,5.911,2.479,9.826,3.188c3.178,0.576,6.781,1.228,10.267,2.193c2.97,0.823,7.252,2.382,10.147,6.402
	C148.14,104.418,147.52,110.811,143.599,114.281z"/>
</svg>
