<?xml version="1.0" encoding="utf-8"?>
<!-- Generator: Adobe Illustrator 16.0.0, SVG Export Plug-In . SVG Version: 6.00 Build 0)  -->
<!DOCTYPE svg PUBLIC "-//W3C//DTD SVG 1.1//EN" "http://www.w3.org/Graphics/SVG/1.1/DTD/svg11.dtd">
<svg version="1.1" id="Layer_1" xmlns="http://www.w3.org/2000/svg" xmlns:xlink="http://www.w3.org/1999/xlink" x="0px" y="0px"
	 width="200px" height="200px" viewBox="0 0 200 200" enable-background="new 0 0 200 200" xml:space="preserve">
<g>
	<path fill="#F26530" d="M194.89,123.203c1.274-4.704,3.179-12.758,3.587-13.182c0.208-1.613,0.363-3.243,0.472-4.899
		c-0.826,0.347-1.747-4.772-3.698-6.338c1.358-1.248,2.627-2.501,3.749-3.742c-0.068-1.729-0.179-3.454-0.335-5.184
		c-0.065-0.752-0.145-1.501-0.232-2.252c-3.434,3.447-0.793,0.836-5.784,0.954c-2.239-7.413,1.175-4.016,3.24-13.966l-0.055-0.166
		c-3.592-0.58-2.073,0.706-5.938,2.449c-2.622-1.712,4.595-9.532,2.716-10.411c-0.95-0.443-9.235,6.116-12.117,5.495l9.395-13.91
		c-0.391-0.898-0.803-1.803-1.232-2.701c-0.875-0.877-1.96-0.425-3.158,0.786l-9.257,10.138c1.297-4.667,1.61-1.065,0.145-4.275
		l7.371-15.153c-0.536-0.764-1.097-1.511-1.678-2.222l-0.725-0.943c-6.174-2.602-6.363,10.182-14.331,6.446
		c0.894-4.444,1.718-1.533,2.843-5.431c1.115-3.866-1.319-0.776,0.702-4.826c1.169-1.068,2.855-2.325,4.523-3.697
		c-0.813-0.897-1.645-1.779-2.483-2.649l-0.395,0.254c-6.189,3.956-13.646,12.439-21.135,15.893
		c8.117-8.044,17.425-17.228,18.434-19.425l-1.58-1.561l-3.107,3.861c-4.867,3.81,2.438-4.536-3.121-1.676
		c-0.511,2.118-8.257,3.2-1.539-5.118c0.63-0.779-0.532-3.411-0.532-3.411c-4.429-3.471-5.979-1.312-6.873-1.892
		c-10.771,8.496-6.884,1.11-1.325-4.195c-0.773-0.633-1.555-1.224-2.703-1.276c-1.077-0.045-2.816-2.59-4.018-2.913
		c-13.072-6.047-9.44,9.468-19.108,7.37l3.425-5.993c1.733-2.573,4.912-5.149,2.03-5.789c-2.65-0.585-4.211,1.146-5.915,3.009
		l-3.79,3.087c1.297-4.667,1.612-1.065,0.146-4.275l1.597-3.294l-1.733-0.259c-0.354,0.163-0.732,0.309-1.137,0.437
		c-0.161-0.217-0.305-0.439-0.432-0.659c-2.903-0.4-5.771-0.733-8.556-1.056c-0.079-0.794-0.271-1.509-0.744-2.189
		c-0.502-0.723-1.152-1.182-1.886-1.455c-0.245,0.213-0.499,0.442-0.764,0.686c-3.548,3.276-4.753,3.523-8.131,6.019l-1.557-3.792
		l-0.163,0.083c-0.998,0.019-1.999,0.052-2.994,0.102c-3.319,2.959-6.281,5.524-8.949,7.773c-0.241-0.03-0.519-0.066-0.85-0.101
		c-5.045-0.531,0.2,2.784-4.904-0.965c2.578-2.777,2.539-1.631,2.931-4.97L82.905,5.46c-1.643,0.294-3.277,0.63-4.91,1.013
		c0.148,0.416,0.3,0.983,0.45,1.755c-4.14,1.784-2.201,3.295-6.873,2.233c0.285-2.414,0.995-3.134,2.146-4.338
		c-0.93-0.086-1.87,0.063-2.795,0.606c-1.243,0.729-1.602,1.518-2.035,2.392L68.81,9.15c-0.313,0.742-0.646,1.509-1.052,2.274
		c-1.14-0.283-1.849-0.593-2.308-0.886c-2.293,1.067-4.599,2.342-6.822,3.532c-1.605,1.754-3.304,3.372-5.251,4.333
		c-1.668,0.816-2.913,0.912-3.915,0.889l-0.595,0.388c-1.684-0.282-2.361,1.02-3.763,2.334l-0.063,0.06
		c-0.076,0.17-0.154,0.346-0.229,0.537c-0.825,5.157,4.18,3.669,0.021,9.011l-5.54-5.077l-2.28,2.385
		c0.742,1.513,2.525,1.989-0.436,5.788c-0.183-0.041-0.337-0.332-0.526-0.222c-1.658,0.968-0.522-0.99-3.029-1.358
		c-2.44,3.196-5.482,8.93-6.229,13.386l-4.567-1.12l0.883,4.581l-4.795,2.024c-0.478,6.085,0,11.091-4.192,14.435l-7.759,7.428
		c-0.187,0.471-0.322,0.968-0.383,1.509C5.887,76.209,6,77.052,5.962,77.892c-0.065,1.699-0.455,3.528-0.839,5.176
		c-0.042,0.146,0.044,0.272,0.239,0.38c-0.244,0.367-0.46,0.726-0.652,1.075c-0.119,0.45-0.231,0.899-0.339,1.351
		c6.077,0.816-2.508,5.544,7.239,7.566c0.312,2.563-0.825,4.349-2.394,6.116c-0.584,0.665-6.067,6.143-6.723,6.845
		c2.813,2.173,6.213-4.707,7.75-1.927c-2.885,7.035-13.331,10.571-7.507,18.412c3.116-2.854,6.179-6.654,10.095-7.915
		c0.496,3.857-0.974,4.117-2.399,7.528c5.627,3.513,2.967-1.614,7.587,2.381c-2.746,2.515-4.093,2.671-4.776,6.047
		c2.458,0.645,1.617,0.381,4.536-0.688l4.25-1.043l-1.856,4.085c-1.667,2.46-1.35,0.921-2.66,4.052
		c3.489,2.322,3.936,0.854,5.354,2.419l-5.086,6.219c5.709-2.138,8.823-6.176,14.042-6.788c-0.167,1.427-0.307,1.973-0.544,2.354
		c6.89-6.067,13.938-12.122,20.459-18.497c8.321-8.134,17.793-14.367,26.143-22.667l0.143-0.142l0.149-0.138
		c2.026-1.815,3.232-1.893,5.26-2.947c4.824-2.986,9.12-2.074,12.948,1.807c1.897,1.919,3.787,3.834,5.611,5.818
		c0.252-0.248,0.507-0.493,0.758-0.744c3.893-3.801,8.039-6.995,12.845-9.573c2.765-1.481,5.742-2.614,8.444-4.116
		c0.456-0.25,0.894-0.518,1.317-0.806c0.87-2.895,0.979-5.629,3.54-8.174l0.146-0.142l0.148-0.138
		c2.024-1.813,3.228-1.894,5.257-2.949c4.824-2.983,9.123-2.074,12.954,1.809c2.215,2.247,4.426,4.483,6.531,6.837
		c6.124,6.835,11.866,13.758,18.858,19.713c5.21,0.927,7.285,2.991,11.349,7.09c1.505,1.514,2.756,2.079,4.602,3.138
		c0.938,0.539,1.79,1.15,2.524,1.903c0.28,0.256,0.544,0.528,0.797,0.819c0.343,0.402,0.673,0.824,0.989,1.246
		C193.685,121.519,194.286,122.359,194.89,123.203z"/>
	<path fill="#299855" d="M110.746,195.691l0.114,0.029c1.446-1.026,2.693-1.716,4.728-3.216l0.347,0.846
		c0.732-0.226,1.484-0.557,2.406-1.336c3.241,0.453,5.173,0.439,6.172,0.388l2.332-2.019v3.053l1.966-0.435
		c1.617-0.285,8.812-3.724,8.834-3.762l0.08-0.028c0.315-0.74,0.646-1.507,1.054-2.275c1.136,0.283,1.851,0.589,2.302,0.887
		c2.298-1.065,4.601-2.343,6.824-3.532c1.288-1.407,1.351,0.419,2.336,0.694c0.313-0.021,0.619-0.069,0.922-0.146
		c1.663-0.821,3.229-4.096,4.233-4.079l0,0l0.838-0.547c0.132,0.021,0.26,0.032,0.383,0.037l1.745-0.729
		c0.505-0.442,0.996-1.044,1.635-1.644c0.983-0.926,1.406-1.016,2.09-1.349c1.934-1.671,4.505-4.04,7.438-7.104
		c-0.743-1.513-2.527-1.987,0.435-5.791c0.183,0.043,0.334,0.335,0.524,0.228c1.658-0.97,0.519,0.987,3.026,1.356
		c1.566-2.046,4.292-4.483,6.606-6.743c1.047-1.388,2.057-2.807,3.025-4.27c0.325-0.493,0.68-1.003,1.052-1.521l4.029-6.329
		c0.479-6.086,0.905-9.161,5.098-12.504c-0.342-1.462-0.884-1.975-1.608-1.86c-0.237,0.039-5.649-7.951-5.925-7.798
		c-0.158-0.222-0.449-0.45-0.951-0.74c-2.733-1.565-3.991-2.137-6.259-4.416c-2.608-2.632-3.507-4.604-9.065-5.146
		c-8.394-6.763-14.339-14.037-21.418-21.946c-2.092-2.334-4.086-4.344-6.278-6.561c-1.272-1.288-1.622-1.635-3.21-0.649
		c-1.394,0.862-3.004,1.088-4.158,2.121c-0.938,0.935-1.739,6.714-2.692,7.565c-6.031,5.358-12.762,4.659-23.494,15.149
		c-2.195,2.161-4.433,4.316-6.686,6.464c-1.47-1.661-2.958-3.353-4.5-5.077c-2.087-2.332-4.087-4.341-6.276-6.564
		c-1.272-1.286-1.624-1.63-3.212-0.648c-1.394,0.86-3.004,1.088-4.156,2.124c-11.312,11.244-16.801,13.533-26.189,22.713
		c-6.927,6.769-19.703,17.717-26.985,24.319c-1.268,0.279,3.372-3.188,2.603-2.217l-1.304,2.676c0.539,0.767-4.55,5.719-3.971,6.43
		l0.719,0.944c6.172,2.598,1.892-4.457,9.862-0.724c-0.892,4.447,2.756-4.188,1.628-0.293c-1.115,3.866,1.32,0.773-0.701,4.824
		c-1.169,1.067,2.797-1.883,1.125-0.509c0.814,0.898,1.643,1.78,2.485,2.647l0.395-0.253c4.764-3.043,5.259-6.401-0.596,6.337
		l1.579,1.561l6.402-6.666c4.864-3.805-2.435,4.54,3.122,1.68c0.508-2.12,5.021,1.123,1.54,5.119
		c-0.655,0.75-0.703,8.313-0.703,8.313c4.427,3.471,7.217-3.594,8.109-3.013c10.768-8.498,6.887-1.109,1.325,4.195
		c0.776,0.629,1.555,1.224,2.708,1.279c1.076,0.043,2.812,2.585,4.014,2.909c13.071,6.046,9.44-9.467,19.108-7.367l-3.422,5.991
		c-1.737,2.571-4.917,5.15-2.031,5.789c2.649,0.581,4.212-1.145,5.914-3.01l3.792-3.086c-1.297,4.667-1.611,1.061-0.144,4.273
		l-1.603,3.294l1.734,0.258c0.357-0.163,0.737-0.309,1.135-0.435c0.164,0.22,0.309,0.44,0.436,0.66
		c2.899,0.396,5.773,0.729,8.559,1.054c0.073,0.795,0.269,1.51,0.742,2.187c0.391,0.563,0.874,0.968,1.411,1.251l1.121-0.467
		c0.503-0.448,0.993-1.045,1.636-1.646C109.8,196.115,110.231,195.927,110.746,195.691L110.746,195.691z M98.078,119.348
		c-3.675,3.475-7.397,6.926-11.164,10.339c-1.826,0.397-3.119,1.758-3.924,3.388l-0.119,0.243c-1.169,1.041-2.336,2.074-3.508,3.102
		c-0.641,0.563-1.271,1.136-1.919,1.688c-0.104,0.087-0.815,0.729-0.968,0.613c-0.144-0.106,0.171-0.956,0.217-1.09
		c0.315-0.935,0.65-1.861,0.951-2.802l3.892-12.152l7.256-12.636C92.414,114.003,95.48,117.033,98.078,119.348L98.078,119.348z
		 M107.32,181.612l-7.915-20.614l16.27,3.475l31.544,10.502L112.4,154.657l-5.473-7.966l8.373-6.718l26.848,5.642l-20.666-14.416
		l32.626,2.73l-21.551-30.259l4.871-4.851l2.384-7.789c17.975,19.697,17.88,19.135,17.923,19.185
		c3.393,3.566,4.099,4.504,8.086,7.721l2.997,2.881c2.879,0.284,2.704,1.038,4.755,3.107c2.416,2.426,4.375,3.617,7.149,5.21
		l-2.338,6.515l5.391-2.285l0.086-0.053c0.1,0.141,0.195,0.282,0.302,0.422c-1.782,3.021-2.403,6.329-2.783,10.341l-3.021,4.743
		l-18.904-4.483l14.772,10.119c-0.767,0.729-1.553,1.472-2.324,2.219c-0.417-0.036-0.847-0.038-1.272-0.006l-3.51-0.764
		l-2.717,3.486c-2.252,2.897-3.391,5.567-3.068,8.372c-1.048,1.013-2.114,2.002-3.205,2.964c-1.087,0.567-1.91,1.129-2.952,2.104
		c-0.044,0.04-0.092,0.085-0.139,0.132l-0.354-0.061l-1.972,1.285c-1.527,0.517-2.487,1.504-3.432,2.623
		c-1.868-0.157-3.788,0.414-5.465,1.769c-1.038,0.56-2.075,1.123-3.117,1.669c-0.073-0.021-0.146-0.039-0.224-0.056l-5.35-1.322
		l-2.524,4.781l-0.023,0.012l-0.208,0.422c-1.5,0.725-3.183,1.489-4.531,1.956c-2.688-0.868-6.015-0.559-8.516-0.903l-3.112-0.437
		l-2.402,2.017c-0.008,0.007-0.018,0.015-0.021,0.021c-0.312,0.108-0.605,0.208-0.883,0.3l-3.006-7.314L107.32,181.612z"/>
</g>
</svg>
