<?xml version="1.0" encoding="utf-8"?>
<!-- Generator: Adobe Illustrator 16.0.0, SVG Export Plug-In . SVG Version: 6.00 Build 0)  -->
<!DOCTYPE svg PUBLIC "-//W3C//DTD SVG 1.1//EN" "http://www.w3.org/Graphics/SVG/1.1/DTD/svg11.dtd">
<svg version="1.1" id="Layer_1" xmlns="http://www.w3.org/2000/svg" xmlns:xlink="http://www.w3.org/1999/xlink" x="0px" y="0px"
	 width="500px" height="500px" viewBox="0 0 500 500" enable-background="new 0 0 500 500" xml:space="preserve">
<path opacity="0.3" fill="#F1F1F1" enable-background="new    " d="M500,500H0V0h500V500z M417.456,408.626
	c-14.651-13.669-34.736-21.338-43.662-24.523c-14.879-5.309-36.226-7.276-49.841-10.277c-7.844-1.731-19.264-6.177-23.074-10.674
	c-3.804-4.616-1.499-47.223-1.499-47.223s7.04-11.094,10.849-20.782c3.806-9.693,7.957-36.24,7.957-36.24s7.848-0.004,10.617-13.733
	c3.002-14.998,7.609-21.23,7.035-32.423c-0.572-10.383-6-10.961-6.572-10.961c0,0,5.647-15.692,6.461-48.921
	c0.922-39.345-29.191-78.111-85.728-78.111s-86.534,38.65-85.727,77.995c0.691,33.114,6.461,48.921,6.461,48.921
	c-0.578,0-5.999,0.577-6.576,10.962c-0.577,11.192,4.153,17.192,7.039,32.19c2.768,13.731,10.615,13.846,10.615,13.846
	s4.152,26.653,7.959,36.345c3.808,9.809,10.846,20.77,10.846,20.77s2.31,42.574-1.498,47.188
	c-3.808,4.617-15.231,8.888-23.077,10.616c-13.73,2.999-34.96,5.209-49.843,10.518c-8.926,3.183-29.006,10.853-43.657,24.518
	C124.58,452.989,184.056,480.667,250,480.667C315.941,480.667,375.416,452.991,417.456,408.626z"/>
</svg>
