<?xml version="1.0" encoding="utf-8"?>
<!-- Generator: Adobe Illustrator 16.0.0, SVG Export Plug-In . SVG Version: 6.00 Build 0)  -->
<!DOCTYPE svg PUBLIC "-//W3C//DTD SVG 1.0//EN" "http://www.w3.org/TR/2001/REC-SVG-20010904/DTD/svg10.dtd">
<svg version="1.0" id="Layer_1" xmlns="http://www.w3.org/2000/svg" xmlns:xlink="http://www.w3.org/1999/xlink" x="0px" y="0px"
	 width="512px" height="512px" viewBox="0 0 512 512" enable-background="new 0 0 512 512" xml:space="preserve">
<g>
	<path fill="#16A3F2" d="M466,26H46c-11.028,0-20,8.972-20,20v420c0,11.028,8.972,20,20,20h420c11.028,0,20-8.972,20-20V46
		C486,34.972,477.028,26,466,26z"/>
	<path fill="#FFFFFF" d="M466,6H46C24,6,6,24,6,46v420c0,22,18,40,40,40h420c22,0,40-18,40-40V46C506,24,488,6,466,6z M486,466
		c0,11.028-8.972,20-20,20H46c-11.028,0-20-8.972-20-20V46c0-11.028,8.972-20,20-20h420c11.028,0,20,8.972,20,20V466z"/>
</g>
<path d="M430.723,268.793l-161.93,161.93c-7.036,7.036-18.55,7.036-25.586,0l-161.93-161.93c-7.036-7.036-7.036-18.55,0-25.585
	l161.93-161.931c7.036-7.036,18.55-7.036,25.586,0l161.93,161.931C437.759,250.243,437.759,261.757,430.723,268.793z"/>
</svg>
